^C:\USERS\WILK\SOURCE\REPOS\UNDERSTAR\UNDERSTAR-SERVER\MAIN.CPP
C:\USERS\WILK\SOURCE\REPOS\UNDERSTAR\UNDERSTAR-SERVER\X64\DEBUG\VC141.PDB
C:\USERS\WILK\SOURCE\REPOS\UNDERSTAR\UNDERSTAR-SERVER\X64\DEBUG\VC141.IDB
C:\USERS\WILK\SOURCE\REPOS\UNDERSTAR\UNDERSTAR-SERVER\X64\DEBUG\MAIN.OBJ
